{
    "version": "5.2.14",
    "description": "Feature-rich GraphQL Client",
    "homepage": "https://altair.sirmuel.design",
    "license": "MIT",
    "architecture": {
        "64bit": {
            "url": "https://github.com/altair-graphql/altair/releases/download/v5.2.14/altair_5.2.14_x64_win.exe#/dl.7z",
            "hash": "sha512:e52572cb05ff6ad28e32e3a03d47fd8aac5dc6b4e1dc211ef69afbdbe726c2b6f760d16e2659a535cec57f6b21e534b03409052fde1dd7c85e18ac8901706b4b",
            "pre_install": [
                "Expand-7zipArchive \"$dir\\`$PLUGINSDIR\\app-64.7z\" \"$dir\"",
                "Remove-Item \"$dir\\`$*\", \"$dir\\Uninstall*\" -Force -Recurse"
            ]
        }
    },
    "shortcuts": [
        [
            "Altair GraphQL Client.exe",
            "Altair GraphQL Client"
        ]
    ],
    "checkver": {
        "github": "https://github.com/altair-graphql/altair"
    },
    "autoupdate": {
        "architecture": {
            "64bit": {
                "url": "https://github.com/altair-graphql/altair/releases/download/v$version/altair_$version_x64_win.exe#/dl.7z",
                "hash": {
                    "url": "$baseurl/latest.yml",
                    "regex": "sha512:\\s+$base64"
                }
            }
        }
    }
}
