{
    "version": "0.8.2",
    "description": "A minimalistic crossplatform image viewer written in Rust",
    "homepage": "https://github.com/woelper/oculante",
    "license": "MIT",
    "url": "https://github.com/woelper/oculante/releases/download/0.8.2/oculante.exe",
    "hash": "bb459295a2932f5222fca5a9ec2d35d9b8831edcc30077e1214f587d8fcd2146",
    "bin": "oculante.exe",
    "shortcuts": [
        [
            "oculante.exe",
            "oculante"
        ]
    ],
    "checkver": {
        "github": "https://github.com/woelper/oculante"
    },
    "autoupdate": {
        "url": "https://github.com/woelper/oculante/releases/download/$version/oculante.exe"
    }
}
