{
    "version": "23.08.3-1601",
    "description": "Universal document viewer",
    "homepage": "https://okular.kde.org",
    "license": "LGPL-2.0-only",
    "notes": "If you want to get the latest development branch-based installer, please install `okular-nightly` from Versions bucket.",
    "architecture": {
        "64bit": {
            "url": "https://binary-factory.kde.org/job/Okular_Release_win64/1601/artifact/okular-23.08.3-1601-windows-cl-msvc2019-x86_64.7z",
            "hash": "9b5abf5902afb266c106efcfd4fd59023a9c9f73482502b3166f49a115c0705f"
        }
    },
    "bin": "bin\\okular.exe",
    "shortcuts": [
        [
            "bin\\okular.exe",
            "Okular"
        ]
    ],
    "checkver": {
        "url": "https://binary-factory.kde.org/job/Okular_Release_win64/",
        "regex": "okular-([\\d.-]+)-windows-cl-(?<lib>\\w+)-x86_64\\.7z"
    },
    "autoupdate": {
        "architecture": {
            "64bit": {
                "url": "https://binary-factory.kde.org/job/Okular_Release_win64/$preReleaseVersion/artifact/okular-$version-windows-cl-$matchLib-x86_64.7z",
                "hash": {
                    "url": "$url.sha256"
                }
            }
        }
    }
}
