{
    "version": "0.76.0",
    "description": "A set of utilities for power users to tune and streamline their Windows experience for greater productivity.",
    "homepage": "https://github.com/microsoft/PowerToys",
    "license": "MIT",
    "architecture": {
        "64bit": {
            "url": "https://github.com/microsoft/PowerToys/releases/download/v0.76.0/PowerToysUserSetup-0.76.0-x64.exe",
            "hash": "627f60bf3f04583a2ece7ace7e6f09abde92493e1fffac5705cc83009781cd8d"
        },
        "arm64": {
            "url": "https://github.com/microsoft/PowerToys/releases/download/v0.76.0/PowerToysUserSetup-0.76.0-arm64.exe",
            "hash": "79d11cddbdd87df8a69a5b2fc28869b3085392e5f45fee6560d278e48f8b0673"
        }
    },
    "installer": {
        "script": [
            "Expand-DarkArchive \"$dir\\$fname\" \"$dir\\.tmp\"",
            "Get-ChildItem \"$dir\\.tmp\\AttachedContainer\\PowerToysUserSetup*.msi\" | Rename-Item -NewName 'PowerToysSetup.msi' -Force",
            "Expand-MsiArchive \"$dir\\.tmp\\AttachedContainer\\PowerToysSetup.msi\" \"$dir\" -ExtractDir 'PowerToys'",
            "Remove-Item \"$dir\\.tmp\", \"$dir\\$fname\" -Force -Recurse"
        ]
    },
    "shortcuts": [
        [
            "PowerToys.exe",
            "PowerToys"
        ]
    ],
    "checkver": "github",
    "autoupdate": {
        "architecture": {
            "64bit": {
                "url": "https://github.com/microsoft/PowerToys/releases/download/v$version/PowerToysUserSetup-$version-x64.exe",
                "hash": {
                    "url": "https://github.com/microsoft/PowerToys/releases/tag/v$version",
                    "regex": ">$sha256<"
                }
            },
            "arm64": {
                "url": "https://github.com/microsoft/PowerToys/releases/download/v$version/PowerToysUserSetup-$version-arm64.exe",
                "hash": {
                    "url": "https://github.com/microsoft/PowerToys/releases/tag/v$version",
                    "regex": ">(?:[a-fA-F0-9]{64})<[\\s\\S]*?>([a-fA-F0-9]{64})<"
                }
            }
        }
    }
}
