{
    "version": "2.2.0",
    "description": "The SBOM tool is a highly scalable and enterprise ready tool to create SPDX 2.2 compatible SBOMs for any variety of artifacts.",
    "homepage": "https://github.com/microsoft/sbom-tool",
    "license": "MIT",
    "architecture": {
        "64bit": {
            "url": "https://github.com/microsoft/sbom-tool/releases/download/v2.2.0/sbom-tool-win-x64.exe",
            "hash": "dc6008e36993ef211c69e408ca519ba5950b3b077aff345e291807ad8529ff82"
        }
    },
    "checkver": "github",
    "autoupdate": {
        "architecture": {
            "64bit": {
                "url": "https://github.com/microsoft/sbom-tool/releases/download/v$version/sbom-tool-win-x64.exe",
                "hash": {
                    "url": "$baseurl/win-x64-manifest.spdx.json",
                    "jsonpath": "$.files[?(@.fileName == './$basename')].checksums[?(@.algorithm == 'SHA256')].checksumValue"
                }
            }
        }
    },
    "bin": [
        [
            "sbom-tool-win-x64.exe",
            "sbom-tool"
        ]
    ]
}
